…
2.  The subsequent arguments describe what to do with the data frame.

3.  The result is a new data frame.

Together these properties make it easy to chain together multiple simple steps to achieve a complex result. Let's dive in and see how these verbs work.

Filter rows with `filter()`
---------------------------

`filter()` allows you to subset observations based on their values. The first argument is the name of the data frame. The second and subsequent arguments are the expressions that filter the data frame. For example, we can select all flights on January 1st with:

``` r
flights %>% 
  filter(month == 1, day == 1)
#> # A tibble: 842 x 19
#>     year month   day dep_time sched_dep_time dep_delay arr_time
#>    <int> <int> <int>    <int>          <int>     <dbl>    <int>
#>  1  2013     1     1      517            515         2      830
#>  2  2013     1     1      533            529         4      850
#>  3  2013     1     1      542            540         2      923
#>  4  2013     1     1      544            545        -1     1004
#>  5  2013     1     1      554            600        -6      812
#>  6  2013     1     1      554            558        -4      740
#>  7  2013     1     1      555            600        -5      913
#>  8  2013     1     1      557            600        -3      709
#>  9  2013     1     1      557            600        -3      838
#> 10  2013     1     1      558            600        -2      753
#> # … with 832 more rows, and 12 more variables: sched_arr_time <int>,
#> #   arr_delay <dbl>, carrier <chr>, flight <int>, tailnum <chr>,
#> #   origin <chr>, dest <chr>, air_time <dbl>, distance <dbl>, hour <dbl>,
#> #   minute <dbl>, time_hour <dttm>
```

When you run that line of code, dplyr executes the filtering operation and returns a new data frame. dplyr functions never modify their inputs, so if you want to save the result, you'll need to use the assignment operator, `<-`:

``` r
jan1 <-
  flights %>% 
  filter(month == 1, day == 1)
```

R either prints out the results, or saves them to a variable. If you want to do both, you can wrap the assignment in parentheses:

``` r
(dec25 <- flights %>% filter(month == 12, day == 25))
#> # A tibble: 719 x 19
#>     year month   day dep_time sched_dep_time dep_delay arr_time
#>    <int> <int> <int>    <int>          <int>     <dbl>    <int>
#>  1  2013    12    25      456            500        -4      649
#>  2  2013    12    25      524            515         9      805
#>  3  2013    12    25      542            540         2      832
#>  4  2013    12    25      546            550        -4     1022
#>  5  2013    12    25      556            600        -4      730
#>  6  2013    12    25      557            600        -3      743
#>  7  2013    12    25      557            600        -3      818
#>  8  2013    12    25      559            600        -1      855
#>  9  2013    12    25      559            600        -1      849
#> 10  2013    12    25      600            600         0      850
#> # … with 709 more rows, and 12 more variables: sched_arr_time <int>,
#> #   arr_delay <dbl>, carrier <chr>, flight <int>, tailnum <chr>,
#> #   origin <chr>, dest <chr>, air_time <dbl>, distance <dbl>, hour <dbl>,
#> #   minute <dbl>, time_hour <dttm>
```
…
flights_sml %>% 
  mutate(
    gain = arr_delay - dep_delay,
    speed = distance / air_time * 60
  )
#> # A tibble: 336,776 x 9
#>     year month   day dep_delay arr_delay distance air_time  gain speed
#>    <int> <int> <int>     <dbl>     <dbl>    <dbl>    <dbl> <dbl> <dbl>
#>  1  2013     1     1         2        11     1400      227     9  370.
#>  2  2013     1     1         4        20     1416      227    16  374.
#>  3  2013     1     1         2        33     1089      160    31  408.
#>  4  2013     1     1        -1       -18     1576      183   -17  517.
#>  5  2013     1     1        -6       -25      762      116   -19  394.
#>  6  2013     1     1        -4        12      719      150    16  288.
#>  7  2013     1     1        -5        19     1065      158    24  404.
#>  8  2013     1     1        -3       -14      229       53   -11  259.
#>  9  2013     1     1        -3        -8      944      140    -5  405.
#> 10  2013     1     1        -2         8      733      138    10  319.
#> # … with 336,766 more rows
```

Note that you can refer to columns that you've just created:

``` r
flights_sml %>% 
  mutate(
    gain = arr_delay - dep_delay,
    hours = air_time / 60,
    gain_per_hour = gain / hours
  )
#> # A tibble: 336,776 x 10
#>     year month   day dep_delay arr_delay distance air_time  gain hours
#>    <int> <int> <int>     <dbl>     <dbl>    <dbl>    <dbl> <dbl> <dbl>
#>  1  2013     1     1         2        11     1400      227     9 3.78 
#>  2  2013     1     1         4        20     1416      227    16 3.78 
#>  3  2013     1     1         2        33     1089      160    31 2.67 
#>  4  2013     1     1        -1       -18     1576      183   -17 3.05 
#>  5  2013     1     1        -6       -25      762      116   -19 1.93 
#>  6  2013     1     1        -4        12      719      150    16 2.5  
#>  7  2013     1     1        -5        19     1065      158    24 2.63 
#>  8  2013     1     1        -3       -14      229       53   -11 0.883
#>  9  2013     1     1        -3        -8      944      140    -5 2.33 
#> 10  2013     1     1        -2         8      733      138    10 2.3  
#> # … with 336,766 more rows, and 1 more variable: gain_per_hour <dbl>
```
…
(`na.rm = TRUE` removes the missing values so they don't affect the final summary)

`summarize()` is not terribly useful unless we pair it with `group_by()`. This changes the unit of analysis from the complete dataset to individual groups. Then, when you use the dplyr verbs on a grouped data frame they'll be automatically applied "by group". For example, if we applied exactly the same code to a data frame grouped by date, we get the average delay per date:

``` r
by_day <- 
  flights %>% 
  group_by(year, month, day)

by_day %>% 
  summarize(delay = mean(dep_delay, na.rm = TRUE))
#> # A tibble: 365 x 4
#> # Groups:   year, month [?]
#>     year month   day delay
#>    <int> <int> <int> <dbl>
#>  1  2013     1     1 11.5 
#>  2  2013     1     2 13.9 
#>  3  2013     1     3 11.0 
#>  4  2013     1     4  8.95
#>  5  2013     1     5  5.73
#>  6  2013     1     6  7.15
#>  7  2013     1     7  5.42
#>  8  2013     1     8  2.55
#>  9  2013     1     9  2.28
#> 10  2013     1    10  2.84
#> # … with 355 more rows
```
…
