…
We can save a bunch of typing by using `summarise_ar()` instead:

``` r
flights %>%
  group_by(dest) %>%
  summarise_at(
    vars(dep_delay, arr_delay, distance, air_time),
    funs(mean(., na.rm = TRUE))
  )
#> # A tibble: 105 x 5
#>   dest  dep_delay arr_delay distance air_time
#>   <chr>     <dbl>     <dbl>    <dbl>    <dbl>
#> 1 ABQ       13.7       4.38     1826    249  
#> 2 ACK        6.46      4.85      199     42.1
#> 3 ALB       23.6      14.4       143     31.8
#> 4 ANC       12.9     - 2.50     3370    413  
#> 5 ATL       12.5      11.3       757    113  
#> # ... with 100 more rows
```
…
(Note that `na.rm = TRUE` is passed on to `mean()` in the same way as in `purrr::map()`.)

If the function doesn't fit on one line, put each argument on a new line:

``` r
flights %>%
  group_by(dest) %>% 
  summarise_at(
    vars(contains("delay"), distance, air_time), 
    funs(mean), 
    na.rm = TRUE
  )
#> # A tibble: 105 x 5
#>   dest  dep_delay arr_delay distance air_time
#>   <chr>     <dbl>     <dbl>    <dbl>    <dbl>
#> 1 ABQ       13.7       4.38     1826    249  
#> 2 ACK        6.46      4.85      199     42.1
#> 3 ALB       23.6      14.4       143     31.8
#> 4 ANC       12.9     - 2.50     3370    413  
#> 5 ATL       12.5      11.3       757    113  
#> # ... with 100 more rows
```
…
### `summarise_if()`

`summarise_if()` allows you to pick variables to summarise based on some property of the column, specified by a **predicate** function. A predicate function is a function that takes a whole column and returns either a single `TRUE` or a single `FALSE`. Commonly this a function that tells you if a variable is a specific type like `is.numeric()`, `is.character()`, or `is.logical()`.

This makes it easier to summarise only numeric columns:

``` r
starwars %>%
  group_by(species) %>%
  summarise_if(is.numeric, funs(mean), na.rm = TRUE)
#> # A tibble: 38 x 4
#>   species  height  mass birth_year
#>   <chr>     <dbl> <dbl>      <dbl>
#> 1 Aleena     79.0  15.0      NaN  
#> 2 Besalisk  198   102        NaN  
#> 3 Cerean    198    82.0       92.0
#> 4 Chagrian  196   NaN        NaN  
#> 5 Clawdite  168    55.0      NaN  
#> # ... with 33 more rows
```

Mutate
------

`mutate_all()`, `mutate_if()` and `mutate_at()` work in a similar way to their summarise equivalents.

``` r
mutate_all(df, funs(log10))
#> # A tibble: 100 x 3
#>        x       y       z
#>    <dbl>   <dbl>   <dbl>
#> 1 -0.183 -0.243  -0.250 
#> 2 -0.380 -0.0805 -0.0945
#> 3 -0.266 -0.0280 -1.16  
#> 4 -0.100 -0.946  -0.0936
#> 5 -0.565 -0.120  -0.662 
#> # ... with 95 more rows
```

If you need a transformation that is not already a function, it's easiest to create your own function:

``` r
double <- function(x) x * 2
half <- function(x) x / 2

mutate_all(df, funs(half, double))
#> # A tibble: 100 x 9
#>       x     y      z x_half y_half z_half x_double y_double z_double
#>   <dbl> <dbl>  <dbl>  <dbl>  <dbl>  <dbl>    <dbl>    <dbl>    <dbl>
#> 1 0.656 0.572 0.563   0.328 0.286  0.281     1.31     1.14     1.13 
#> 2 0.417 0.831 0.804   0.208 0.415  0.402     0.834    1.66     1.61 
#> 3 0.542 0.938 0.0691  0.271 0.469  0.0345    1.08     1.88     0.138
#> 4 0.794 0.113 0.806   0.397 0.0567 0.403     1.59     0.227    1.61 
#> 5 0.272 0.759 0.218   0.136 0.379  0.109     0.545    1.52     0.435
#> # ... with 95 more rows
```

The default names are generated in the same way as `summarise()`. That means that you may want to use a `transmute()` variant if you want to apply multiple transformations and don't want the original values:

``` r
transmute_all(df, funs(half, double))
#> # A tibble: 100 x 6
#>   x_half y_half z_half x_double y_double z_double
#>    <dbl>  <dbl>  <dbl>    <dbl>    <dbl>    <dbl>
#> 1  0.328 0.286  0.281     1.31     1.14     1.13 
#> 2  0.208 0.415  0.402     0.834    1.66     1.61 
#> 3  0.271 0.469  0.0345    1.08     1.88     0.138
#> 4  0.397 0.0567 0.403     1.59     0.227    1.61 
#> 5  0.136 0.379  0.109     0.545    1.52     0.435
#> # ... with 95 more rows
```
…
You have to be explicit and say you either want the rows where the all of the variables equal 0:

``` r
diamonds %>% filter_if(is.numeric, all_vars(. == 0))
#> # A tibble: 0 x 10
#> # ... with 10 variables: carat <dbl>, cut <ord>, color <ord>,
#> #   clarity <ord>, depth <dbl>, table <dbl>, price <int>, x <dbl>,
#> #   y <dbl>, z <dbl>
```

Or the rows where any of the variables equals zero:

``` r
diamonds %>% filter_if(is.numeric, any_vars(. == 0))
#> # A tibble: 20 x 10
#>   carat cut     color clarity depth table price     x     y     z
#>   <dbl> <ord>   <ord> <ord>   <dbl> <dbl> <int> <dbl> <dbl> <dbl>
#> 1  1.00 Premium G     SI2      59.1  59.0  3142  6.55  6.48     0
#> 2  1.01 Premium H     I1       58.1  59.0  3167  6.66  6.60     0
#> 3  1.10 Premium G     SI2      63.0  59.0  3696  6.50  6.47     0
#> 4  1.01 Premium F     SI2      59.2  58.0  3837  6.50  6.47     0
#> 5  1.50 Good    G     I1       64.0  61.0  4731  7.15  7.04     0
#> # ... with 15 more rows
```

This is particularly useful if you're looking for missing values:

``` r
flights %>% filter_all(any_vars(is.na(.)))
#> # A tibble: 9,430 x 19
#>    year month   day dep_time sched_dep_time dep_delay arr_time
#>   <int> <int> <int>    <int>          <int>     <dbl>    <int>
#> 1  2013     1     1     1525           1530    - 5.00     1934
#> 2  2013     1     1     1528           1459     29.0      2002
#> 3  2013     1     1     1740           1745    - 5.00     2158
#> 4  2013     1     1     1807           1738     29.0      2251
#> 5  2013     1     1     1939           1840     59.0        29
#> # ... with 9,425 more rows, and 12 more variables: sched_arr_time <int>,
#> #   arr_delay <dbl>, carrier <chr>, flight <int>, tailnum <chr>,
#> #   origin <chr>, dest <chr>, air_time <dbl>, distance <dbl>, hour <dbl>,
#> #   minute <dbl>, time_hour <dttm>
```
