…
    ## [1] TRUE

``` r
setequal(union(df$train[[1]]$idx, df$test[[1]]$idx), 1:201)
```

    ## [1] TRUE

Some model functions, such as `lm()` can take as input resample objects. `loess()` does not, however. For models such as these, you can turn a resample object into the corresponding tibble using `as_tibble()`.

``` r
as_tibble(df$test[[1]])
```

    ## # A tibble: 21 x 2
    ##        x     y
    ##    <dbl> <dbl>
    ##  1   3   -18.3
    ##  2   7    35.0
    ##  3  15    82.6
    ##  4  22    75.6
    ##  5  25    45.1
    ##  6  28.5  58.0
    ##  7  32    96.4
    ##  8  36    51.9
    ##  9  38    38.3
    ## 10  44    84.9
    ## # ... with 11 more rows
…
