…
The error complains that there's no column called `group_var` - that shouldn't be a surprise, because we don't want to use the variable `group_var` directly; we want to use its contents to refer to `manufacturer`. To fix this problem, we need to perform the final step: quoting and unquoting. You can think of quoting as being infectious: if you want your function to vary an automatically quoted argument, you also need to quote the corresponding argument. Then to refer to the variable indirectly, you need to unquote it.

``` r
grouped_mean_1 <- function(df, group_var, summary_var) {
  group_var <- enquo(group_var)
  summary_var <- enquo(summary_var)
  
  df %>% 
    group_by(!!group_var) %>% 
    summarize(mean = mean(!!summary_var))
}

grouped_mean_1(df = mpg, group_var = manufacturer, summary_var = hwy)
#> # A tibble: 15 x 2
#>   manufacturer  mean
#>   <chr>        <dbl>
#> 1 audi          26.4
#> 2 chevrolet     21.9
#> 3 dodge         17.9
#> 4 ford          19.4
#> 5 honda         32.6
#> # … with 10 more rows
```
…
What if you want to allow the user to pass in any number of variables to `group_by()`? You might have noticed that some functions, like scoped verbs and the purrr functions, take `...` as a final argument, allowing you to specify additional arguments to their functions. We can use that same functionality here.

``` r
grouped_mean_2 <- function(df, summary_var, ...) {
  summary_var <- enquo(summary_var)
  
  df %>% 
    group_by(...) %>% 
    summarize(mean = mean(!!summary_var))
}

grouped_mean_2(df = mpg, summary_var = hwy, manufacturer, model)
#> # A tibble: 38 x 3
#> # Groups:   manufacturer [15]
#>   manufacturer model               mean
#>   <chr>        <chr>              <dbl>
#> 1 audi         a4                  28.3
#> 2 audi         a4 quattro          25.8
#> 3 audi         a6 quattro          24  
#> 4 chevrolet    c1500 suburban 2wd  17.8
#> 5 chevrolet    corvette            24.8
#> # … with 33 more rows
```

Notice that with `...`, we didn't have to use `enquo()` or `!!`. `...` takes care of all the quoting and unquoting for you.

You can also use `...` to pass in full expressions to dplyr verbs.

``` r
filter_fun <- function(df, ...) {
  df %>% 
    filter(...)
}

filter_fun(df = mpg, year == 1999)
#> # A tibble: 117 x 11
#>   manufacturer model  displ  year   cyl trans drv     cty   hwy fl    class
#>   <chr>        <chr>  <dbl> <int> <int> <chr> <chr> <int> <int> <chr> <chr>
#> 1 audi         a4       1.8  1999     4 auto… f        18    29 p     comp…
#> 2 audi         a4       1.8  1999     4 manu… f        21    29 p     comp…
#> 3 audi         a4       2.8  1999     6 auto… f        16    26 p     comp…
#> 4 audi         a4       2.8  1999     6 manu… f        18    26 p     comp…
#> 5 audi         a4 qu…   1.8  1999     4 manu… 4        18    26 p     comp…
#> # … with 112 more rows
```

This will work with any number of expressions. For example, say we wanted to filter on multiple conditions.

``` r
filter_fun(df = mpg, year == 1999, class == "minivan")
#> # A tibble: 6 x 11
#>   manufacturer model  displ  year   cyl trans drv     cty   hwy fl    class
#>   <chr>        <chr>  <dbl> <int> <int> <chr> <chr> <int> <int> <chr> <chr>
#> 1 dodge        carav…   2.4  1999     4 auto… f        18    24 r     mini…
#> 2 dodge        carav…   3    1999     6 auto… f        17    24 r     mini…
#> 3 dodge        carav…   3.3  1999     6 auto… f        16    22 r     mini…
#> 4 dodge        carav…   3.3  1999     6 auto… f        16    22 r     mini…
#> 5 dodge        carav…   3.8  1999     6 auto… f        15    22 r     mini…
#> # … with 1 more row
```

Assigning names
---------------

`grouped_mean_1()` doesn't name its new variables in an informative way.

``` r
grouped_mean_1(df = mpg, group_var = manufacturer, summary_var = hwy)
#> # A tibble: 15 x 2
#>   manufacturer  mean
#>   <chr>        <dbl>
#> 1 audi          26.4
#> 2 chevrolet     21.9
#> 3 dodge         17.9
#> 4 ford          19.4
#> 5 honda         32.6
#> # … with 10 more rows
```
…
  df %>% 
    group_by(!!group_var) %>% 
    summarize(!!summary_var_name := mean(!!summary_var))
}

grouped_mean_3(
  df = mpg,
  group_var = manufacturer,
  summary_var = hwy,
  summary_var_name = hwy_mean
)
#> # A tibble: 15 x 2
#>   manufacturer hwy_mean
#>   <chr>           <dbl>
#> 1 audi             26.4
#> 2 chevrolet        21.9
#> 3 dodge            17.9
#> 4 ford             19.4
#> 5 honda            32.6
#> # … with 10 more rows
```

Passing vectors with `!!!`
--------------------------

Say you want to use `recode()` to recode a variable.

``` r
mpg %>% 
  mutate(drv = recode(drv, "f" = "front", "r" = "rear", "4" = "four")) %>% 
  select(drv)
#> # A tibble: 234 x 1
#>   drv  
#>   <chr>
#> 1 front
#> 2 front
#> 3 front
#> 4 front
#> 5 front
#> # … with 229 more rows
```
…
``` r
mpg %>% 
  mutate(drv = recode(drv, !!recode_key)) %>% 
  select(drv)
#> Error: Argument 2 must be named, not unnamed
```

`!!` doesn't work because `recode_key` is a vector. Not only do we need to immediately evaluate `recode_key`, we also need to unpack its contents. To do so, we'll use `!!!`.

``` r
mpg %>% 
  mutate(drv = recode(drv, !!!recode_key)) %>% 
  select(drv)
#> # A tibble: 234 x 1
#>   drv  
#>   <chr>
#> 1 front
#> 2 front
#> 3 front
#> 4 front
#> 5 front
#> # … with 229 more rows
```
