…
df %>%
  mutate(grade = grade_1(score))
#> Warning in if (x >= 90) {: the condition has length > 1 and only the first
#> element will be used
#> Warning in if (x >= 80) {: the condition has length > 1 and only the first
#> element will be used
#> Warning in if (x >= 70) {: the condition has length > 1 and only the first
#> element will be used
#> Warning in if (x >= 60) {: the condition has length > 1 and only the first
#> element will be used
#> # A tibble: 10 x 2
#>   score grade
#>   <int> <chr>
#> 1    17 F    
#> 2    97 F    
#> 3    76 F    
#> 4    87 F    
#> 5    51 F    
#> # ... with 5 more rows
```

`if` can only work with a single element at a time, so if `grade_1()` is given a vector it will only use the first element. You can always work around this problem by using one of the `map_` functions from purrr. In this case, `grade_1()` returns a character vector so we'd use `map_chr()`:

``` r
df %>%
  mutate(grade = map_chr(score, grade_1))
#> # A tibble: 10 x 2
#>   score grade
#>   <int> <chr>
#> 1    17 F    
#> 2    97 A    
#> 3    76 C    
#> 4    87 B    
#> 5    51 F    
#> # ... with 5 more rows
```
…
grade_2(seq(0, 100, by = 10))
#>  [1] "F" "F" "F" "F" "F" "F" "D" "C" "B" "A" "A"

df %>%
  mutate(grade = grade_2(score))
#> # A tibble: 10 x 2
#>   score grade
#>   <int> <chr>
#> 1    17 F    
#> 2    97 A    
#> 3    76 C    
#> 4    87 B    
#> 5    51 F    
#> # ... with 5 more rows
```
…
